…
``` r
library(scoutr)
library(dplyr)

# read and preview some event data
path <- system.file("extdata", "events_england.json", package = "scoutr")
events <- fc_read_events(path)
#>   Step (1/3): Reading JSON data and converting to tibble...
#>   Step (2/3): Tidying tag variables...
#>   Step (3/3): Tidying event pitch locations...
#>   Happy scouting!

events %>%
  select(event_sec:end_y)
#> # A tibble: 1,768 x 5
#>   event_sec start_x start_y end_x end_y
#>       <dbl>   <int>   <int> <int> <int>
#> 1      2.76      49      49    31    78
#> 2      4.95      31      78    51    75
#> 3      6.54      51      75    35    71
#> 4      8.14      35      71    41    95
#> 5     10.3       41      95    72    88
#> # … with 1,763 more rows
…
events %>%
  select(event_sec:end_y) %>%
  fc_locations_transform(x = c("start_x", "end_x"), 
                         y = c("start_y", "end_y"),
                         dim = c(105, 70), units = "meters") %>% 
  fc_locations_link(start_loc = c("start_x", "start_y"), 
                    end_loc   = c("end_x", "end_y"))
#> Attributes added: 'units', 'pitch_dimensions'
#> Pitch dimensions: (105 X 70) meters
#> Simple feature collection with 1768 features and 5 fields
#> geometry type:  LINESTRING
#> dimension:      XY
#> bbox:           xmin: 0 ymin: 0 xmax: 105 ymax: 70
#> CRS:            NA
#> # A tibble: 1,768 x 6
#>   event_sec start_x start_y end_x end_y                 geometry
#>       <dbl>   <dbl>   <dbl> <dbl> <dbl>             <LINESTRING>
#> 1      2.76    51.4    34.3  32.6  54.6 (51.45 34.3, 32.55 54.6)
#> 2      4.95    32.6    54.6  53.6  52.5 (32.55 54.6, 53.55 52.5)
#> 3      6.54    53.6    52.5  36.8  49.7 (53.55 52.5, 36.75 49.7)
#> 4      8.14    36.8    49.7  43.0  66.5 (36.75 49.7, 43.05 66.5)
#> 5     10.3     43.0    66.5  75.6  61.6  (43.05 66.5, 75.6 61.6)
#> # … with 1,763 more rows

# define possessions
events %>% 
  select(match_id, event_name, team_id) %>% 
  fc_sequence_possession(event_var = "event_name", team_var = "team_id") %>% 
  print(n = 20)
#> # A tibble: 1,768 x 5
#>    match_id event_name team_id possession_id possession_seq
#>    <chr>    <chr>      <chr>           <dbl>          <int>
#>  1 2499719  Pass       1609                1              1
#>  2 2499719  Pass       1609                1              2
#>  3 2499719  Pass       1609                1              3
#>  4 2499719  Pass       1609                1              4
#>  5 2499719  Pass       1609                1              5
#>  6 2499719  Pass       1609                1              6
#>  7 2499719  Pass       1631                2              1
#>  8 2499719  Duel       1631                2              2
#>  9 2499719  Duel       1609                2              3
#> 10 2499719  Pass       1609                3              1
#> 11 2499719  Pass       1609                3              2
#> 12 2499719  Pass       1609                3              3
#> 13 2499719  Duel       1631                3              4
#> 14 2499719  Duel       1609                3              5
#> 15 2499719  Pass       1609                3              6
#> 16 2499719  Pass       1631                4              1
#> 17 2499719  Pass       1631                4              2
#> 18 2499719  Pass       1631                4              3
#> 19 2499719  Pass       1631                4              4
#> 20 2499719  Pass       1631                4              5
#> # … with 1,748 more rows

# compute velocities
events %>%
  fc_locations_transform(x = c("start_x", "end_x"), y = c("start_y", "end_y")) %>%
  fc_sequence_possession(event_var = "event_name", team_var = "team_id") %>%
  select(match_id, match_period, possession_id, event_sec:end_y) %>% 
  fc_velocity_event(start_loc = c("start_x", "start_y"), end_loc = c("end_x", "end_y"),
                    direction = c("east_west", "north_south")) %>% 
  select(-match_period, -(start_x:end_y))
#> Attributes added: 'units', 'pitch_dimensions'
#> Pitch dimensions: (105 X 70) meters
#> # A tibble: 1,768 x 6
#>   match_id possession_id event_sec duration east_west_veloci… north_south_veloc…
#>   <chr>            <dbl>     <dbl>    <dbl>             <dbl>              <dbl>
#> 1 2499719              1      2.76     2.19              8.64               9.28
#> 2 2499719              1      4.95     1.60             13.2                1.32
#> 3 2499719              1      6.54     1.60             10.5                1.75
#> 4 2499719              1      8.14     2.16              2.92               7.78
#> 5 2499719              1     10.3      2.25             14.5                2.18
#> # … with 1,763 more rows
```
…
